<?xml version="1.0" encoding="utf-8"?>
<!-- Generator: Adobe Illustrator 22.0.1, SVG Export Plug-In . SVG Version: 6.00 Build 0)  -->
<svg version="1.1" xmlns="http://www.w3.org/2000/svg" xmlns:xlink="http://www.w3.org/1999/xlink" x="0px" y="0px"
	 viewBox="0 0 127 109.4" style="enable-background:new 0 0 127 109.4;" xml:space="preserve">
<style type="text/css">
	.st0{fill:#EA6F00;}
	.st1{opacity:0.36;fill:#EA6F00;}
	.st2{fill:#FFFFFF;}
	.st3{clip-path:url(#SVGID_2_);}
	.st4{fill:#EF4C35;}
	.st5{fill:#DD3E2B;}
	.st6{fill:#D2D2D7;}
	.st7{fill:#E4E4EA;}
	.st8{fill:#F5F5F7;}
	.st9{fill:#694B4B;}
	.st10{fill:#563B3B;}
	.st11{fill:#FBCB99;}
	.st12{fill:#EDBA89;}
	.st13{fill:#324A5E;}
	.st14{fill:#283D4C;}
</style>
<g id="Layer_1">
</g>
<g id="Layer_3">
	<g>
		<g>
			<polygon class="st0" points="82.8,29.8 65.4,0 127,0 127,52.3 			"/>
			<polygon class="st1" points="80.5,31.3 62.2,0 127,0 127,55 			"/>
		</g>
		<g>
			<circle class="st2" cx="106.4" cy="19.6" r="13.6"/>
			<g>
				<defs>
					<circle id="SVGID_1_" cx="106.4" cy="19" r="14.2"/>
				</defs>
				<clipPath id="SVGID_2_">
					<use xlink:href="#SVGID_1_"  style="overflow:visible;"/>
				</clipPath>
				<g class="st3">
					<polygon class="st4" points="108.1,29.6 108.7,28.1 107,26.8 105.3,28.1 105.9,29.6 					"/>
					<polygon class="st5" points="105.9,29.6 105.9,29.7 105.2,34.4 108.9,34.4 108.1,29.7 108.1,29.6 					"/>
					<polygon class="st6" points="105.6,34.4 106.4,29.6 105.7,27.8 103.3,25.5 103.7,29 105.3,34.4 					"/>
					<polygon class="st7" points="108.8,34.4 110.3,28.9 110.8,25.5 108.3,27.8 107.6,29.6 108.4,34.4 					"/>
					<path class="st8" d="M108.8,28.8c0.5,0.4,0.8,0,0.9-0.1l1.6-3.2l-2-1.3l-0.5,0.9l-1.8,1.9l-1.7-1.7l-0.3-1.2l-2.3,1.5l1.5,3.2
						c0,0.1,0.4,0.6,1,0.2l1.8-1.3L108.8,28.8C108.8,28.7,108.8,28.7,108.8,28.8z"/>
					<path class="st9" d="M107.3,7.9h-0.5c-3.3,0-5.9,2.7-5.9,5.9v0.8v0.7v1.2c0,0,1.3-0.1,1.5-0.8l0,0c0.1-0.1,0.1-0.1,0.1-0.2
						c0.8,0,4.3-0.1,6.4-2.5c0.2,0.7,1.1,2.1,2.6,2.5c0,0.1,0.1,0.2,0.1,0.2l0,0c0.2,0.7,1.5,0.8,1.5,0.8v-1.3v-0.7v-0.8
						C113.2,10.5,110.5,7.9,107.3,7.9z M111.7,15.4L111.7,15.4L111.7,15.4L111.7,15.4L111.7,15.4z M111.7,15.4L111.7,15.4
						L111.7,15.4L111.7,15.4L111.7,15.4L111.7,15.4z M111.5,15.5L111.5,15.5l0.1-0.1l0,0L111.5,15.5L111.5,15.5z M111.7,15.5
						L111.7,15.5C111.6,15.6,111.6,15.6,111.7,15.5L111.7,15.5C111.6,15.5,111.6,15.5,111.7,15.5L111.7,15.5L111.7,15.5L111.7,15.5z
						"/>
					<path class="st10" d="M101.9,15.3v-0.7v-0.8c0-3.2,2.5-5.8,5.6-5.9c-0.1,0-0.2,0-0.3,0h-0.5c-3.3,0-5.9,2.7-5.9,5.9v0.8v0.7
						v1.2c0,0,0.6-0.1,1-0.3L101.9,15.3L101.9,15.3z"/>
					<path class="st11" d="M112.5,15.7c-0.2-0.1-0.5,0-0.7,0.1c-0.2,0.1-0.3,0.4-0.3,0.6v2.1c0,0.2,0.1,0.5,0.3,0.6
						c0.1,0.1,0.3,0.1,0.4,0.1c0.1,0,0.1,0,0.2,0c0.1,0,0.3-0.1,0.4-0.2c0.1,0,0.1-0.1,0.2-0.2c0.1,0,0.2-0.1,0.2-0.2
						c0.3-0.3,0.5-0.8,0.5-1.2C113.8,16.7,113.2,15.9,112.5,15.7z"/>
					<path class="st12" d="M102.3,15.8c-0.2-0.1-0.4-0.2-0.7-0.1c-0.8,0.2-1.3,1-1.3,1.8c0,0.8,0.5,1.5,1.3,1.8c0.1,0,0.1,0,0.2,0
						c0.2,0,0.3,0,0.4-0.1c0.2-0.1,0.3-0.4,0.3-0.6v-2.1C102.6,16.2,102.4,16,102.3,15.8z"/>
					<path class="st11" d="M109.1,22.2c-0.1-0.1-0.3-0.2-0.5-0.2l0,0c0,0-0.1,0-0.1,0c-0.3,0.1-0.6,0.1-0.9,0.1h-0.9
						c-0.3,0-0.6,0-0.9-0.1c-0.2-0.1-0.5,0-0.6,0.1c-0.2,0.1-0.3,0.4-0.3,0.6v2.2l0,0c0,0.2,0.1,0.4,0.2,0.6l1.5,1.5
						c0.1,0.1,0.3,0.2,0.5,0.2c0,0,0,0,0,0c0.2,0,0.4-0.1,0.5-0.2l1.5-1.6c0.1-0.1,0.2-0.3,0.2-0.5v-2.1
						C109.3,22.6,109.2,22.4,109.1,22.2z"/>
					<path class="st12" d="M107.2,26.8l-1.5-1.5c-0.2-0.2-0.2-0.4-0.2-0.6l0,0v-2.2c0-0.2,0.1-0.4,0.2-0.5c-0.2,0-0.4,0-0.6,0.1
						c-0.2,0.1-0.3,0.4-0.3,0.6v2.2l0,0c0,0.2,0.1,0.4,0.2,0.6l1.5,1.5c0.1,0.1,0.3,0.2,0.5,0.2c0,0,0,0,0,0c0.2,0,0.4-0.1,0.5-0.2
						l0,0C107.4,26.9,107.3,26.9,107.2,26.8z"/>
					<path class="st11" d="M111.4,15.1c-0.1,0-0.2-0.1-0.3-0.1c-1.3-0.6-1.8-1.3-2-1.8c0,0,0,0,0-0.1c-0.1-0.3-0.4-0.1-0.4-0.1l0,0
						c-1.2,0.9-2.4,1.4-3.5,1.7c-0.4,0.1-0.8,0.2-1.2,0.3c-0.7,0.1-1.2,0.1-1.2,0.1c-0.4,0-0.7,0.4-0.7,0.7v3c0,2.4,2,4.4,4.4,4.4
						h0.9c2.4,0,4.4-2,4.4-4.4v-3.2C111.9,15.5,111.7,15.2,111.4,15.1z"/>
					<path class="st12" d="M103.1,19v-3c0-0.4,0.3-0.7,0.7-0.7c0,0,0.5,0,1.2-0.1c0.4-0.1,0.8-0.2,1.2-0.3c0.9-0.3,2-0.7,3.1-1.4
						c0,0,0-0.1-0.1-0.1c0,0,0,0,0-0.1c-0.1-0.3-0.4-0.1-0.4-0.1l0,0c-1.2,0.9-2.4,1.4-3.5,1.7c-0.4,0.1-0.8,0.2-1.2,0.3
						c-0.7,0.1-1.2,0.1-1.2,0.1c-0.4,0-0.7,0.4-0.7,0.7v3c0,2.4,2,4.4,4.4,4.4h0.9C105,23.3,103.1,21.4,103.1,19z"/>
					<g>
						<path class="st13" d="M98.5,34.4h7.3l-2.6-9.3l-2.7,1.1l0,0c-1.1,0.4-2.9,1.8-2.9,4.5v2.7C97.5,33.7,97.7,34.4,98.5,34.4z"/>
						<path class="st13" d="M116.4,33.5v-2.7c0-2.8-1.9-4.2-2.9-4.5l-2.6-1.1l-2.6,9.2h7.2C116.3,34.4,116.4,33.8,116.4,33.5z"/>
					</g>
					<g>
						<path class="st14" d="M103.2,25.1l-2.7,1.1l0,0c-1.1,0.4-2.9,1.8-2.9,4.5v2.7c0,0.3,0.1,1,1,1h0.1v-3.6c0-2.8,1.8-4.2,2.9-4.5
							l0,0l1.7-0.7L103.2,25.1z"/>
						<path class="st14" d="M113.4,34.4v-3.7c0-0.2-0.2-0.4-0.4-0.4c-0.2,0-0.4,0.2-0.4,0.4v3.7H113.4z"/>
						<path class="st14" d="M101.5,34.4v-3.7c0-0.2-0.2-0.4-0.4-0.4c-0.2,0-0.4,0.2-0.4,0.4v3.7H101.5z"/>
					</g>
					<path class="st12" d="M107.5,19.3c0.2,0,0.3,0.1,0.3,0.3s-0.1,0.3-0.3,0.3h-0.7c-0.2,0-0.3-0.1-0.3-0.3v-1.4
						c0-0.2,0.1-0.3,0.3-0.3c0.2,0,0.3,0.1,0.3,0.3v1.1H107.5z"/>
				</g>
			</g>
		</g>
	</g>
</g>
</svg>
